StartFontMetrics 2.0
Comment Generated by FontForge 20190427
Comment Creation Date: Mon Aug 26 00:08:00 2019
FontName Compagnon-Light
FullName Compagnon Light
FamilyName Compagnon Light
Weight Normal
Notice (2018 - Juliette Duhe, Lea Pradine)
ItalicAngle 0
IsFixedPitch false
UnderlinePosition -125
UnderlineThickness 50
Version 001.000
EncodingScheme ISO10646-1
FontBBox -25 -177 1060 769
CapHeight 590
XHeight 430
Ascender 590
Descender -160
StartCharMetrics 365
C 0 ; WX 0 ; N uni0000 ; B 0 0 0 0 ;
C 13 ; WX 300 ; N uni000D ; B 0 0 0 0 ;
C 32 ; WX 600 ; N space ; B 0 0 0 0 ;
C 33 ; WX 600 ; N exclam ; B 246 -13 349 603 ;
C 34 ; WX 600 ; N quotedbl ; B 66 310 454 603 ;
C 35 ; WX 600 ; N numbersign ; B 70 10 571 581 ;
C 36 ; WX 600 ; N dollar ; B 68 -13 534 603 ;
C 37 ; WX 600 ; N percent ; B 44 -13 556 603 ;
C 38 ; WX 600 ; N ampersand ; B 18 -14 596 603 ;
C 39 ; WX 600 ; N quotesingle ; B 126 310 312 603 ;
C 40 ; WX 600 ; N parenleft ; B 232 -111 500 608 ;
C 41 ; WX 600 ; N parenright ; B 100 -111 368 608 ;
C 42 ; WX 600 ; N asterisk ; B 130 283 470 589 ;
C 43 ; WX 600 ; N plus ; B 85 0 515 430 ;
C 44 ; WX 600 ; N comma ; B 207 -168 393 125 ;
C 45 ; WX 600 ; N hyphen ; B 88 200 518 230 ;
C 46 ; WX 600 ; N period ; B 233 -13 366 120 ;
C 47 ; WX 600 ; N slash ; B 76 -13 525 603 ;
C 48 ; WX 600 ; N zero ; B 62 -13 539 602 ;
C 49 ; WX 600 ; N one ; B 77 0 543 590 ;
C 50 ; WX 600 ; N two ; B 60 -13 541 603 ;
C 51 ; WX 600 ; N three ; B 80 -13 518 590 ;
C 52 ; WX 600 ; N four ; B 44 0 569 603 ;
C 53 ; WX 600 ; N five ; B 89 -14 520 590 ;
C 54 ; WX 600 ; N six ; B 75 -13 525 603 ;
C 55 ; WX 600 ; N seven ; B 75 0 542 603 ;
C 56 ; WX 600 ; N eight ; B 78 -14 522 603 ;
C 57 ; WX 600 ; N nine ; B 75 -13 525 603 ;
C 58 ; WX 600 ; N colon ; B 234 -13 367 443 ;
C 59 ; WX 600 ; N semicolon ; B 193 -169 379 443 ;
C 60 ; WX 600 ; N less ; B 66 -13 488 466 ;
C 61 ; WX 600 ; N equal ; B 69 104 531 326 ;
C 62 ; WX 600 ; N greater ; B 112 -13 534 466 ;
C 63 ; WX 600 ; N question ; B 84 -13 507 603 ;
C 64 ; WX 600 ; N at ; B 29 -93 583 532 ;
C 65 ; WX 600 ; N A ; B 24 0 575 603 ;
C 66 ; WX 600 ; N B ; B 25 -5 554 603 ;
C 67 ; WX 600 ; N C ; B 33 -13 580 603 ;
C 68 ; WX 600 ; N D ; B 20 0 570 603 ;
C 69 ; WX 600 ; N E ; B 41 0 552 590 ;
C 70 ; WX 600 ; N F ; B 27 0 552 590 ;
C 71 ; WX 600 ; N G ; B 29 -13 582 603 ;
C 72 ; WX 600 ; N H ; B 27 0 573 590 ;
C 73 ; WX 600 ; N I ; B 102 0 498 590 ;
C 74 ; WX 600 ; N J ; B 53 -13 582 590 ;
C 75 ; WX 600 ; N K ; B 40 -13 611 590 ;
C 76 ; WX 600 ; N L ; B 56 0 566 590 ;
C 77 ; WX 600 ; N M ; B 32 0 570 590 ;
C 78 ; WX 600 ; N N ; B 23 0 577 603 ;
C 79 ; WX 600 ; N O ; B 22 -13 577 603 ;
C 80 ; WX 600 ; N P ; B 43 0 557 603 ;
C 81 ; WX 600 ; N Q ; B 40 -172 561 603 ;
C 82 ; WX 600 ; N R ; B 24 -13 587 598 ;
C 83 ; WX 600 ; N S ; B 65 -13 535 603 ;
C 84 ; WX 600 ; N T ; B 40 0 566 590 ;
C 85 ; WX 600 ; N U ; B 33 -13 567 590 ;
C 86 ; WX 600 ; N V ; B 29 0 571 590 ;
C 87 ; WX 600 ; N W ; B 19 0 580 590 ;
C 88 ; WX 600 ; N X ; B 39 0 559 590 ;
C 89 ; WX 600 ; N Y ; B 32 0 568 590 ;
C 90 ; WX 600 ; N Z ; B 73 0 522 590 ;
C 91 ; WX 600 ; N bracketleft ; B 260 -93 519 590 ;
C 92 ; WX 600 ; N backslash ; B 76 -13 525 603 ;
C 93 ; WX 600 ; N bracketright ; B 81 -92 340 590 ;
C 94 ; WX 600 ; N asciicircum ; B 150 346 450 603 ;
C 95 ; WX 600 ; N underscore ; B 125 -83 485 -33 ;
C 96 ; WX 600 ; N grave ; B 124 479 442 580 ;
C 97 ; WX 600 ; N a ; B 42 -13 569 443 ;
C 98 ; WX 600 ; N b ; B 35 -13 549 590 ;
C 99 ; WX 600 ; N c ; B 59 -13 554 443 ;
C 100 ; WX 600 ; N d ; B 38 -13 580 590 ;
C 101 ; WX 600 ; N e ; B 66 -13 529 443 ;
C 102 ; WX 600 ; N f ; B 56 0 560 603 ; L t ft ; L j fj ; L f ff ; L l fl ; L i fi ;
C 103 ; WX 600 ; N g ; B 26 -173 585 443 ;
C 104 ; WX 600 ; N h ; B 44 0 567 590 ;
C 105 ; WX 600 ; N i ; B 97 0 516 590 ;
C 106 ; WX 600 ; N j ; B 101 -173 481 590 ;
C 107 ; WX 600 ; N k ; B 20 -13 574 590 ;
C 108 ; WX 600 ; N l ; B 95 0 514 590 ;
C 109 ; WX 600 ; N m ; B 3 0 593 443 ;
C 110 ; WX 600 ; N n ; B 14 0 567 443 ;
C 111 ; WX 600 ; N o ; B 72 -13 529 443 ;
C 112 ; WX 600 ; N p ; B 18 -160 560 443 ;
C 113 ; WX 600 ; N q ; B 51 -160 568 443 ;
C 114 ; WX 600 ; N r ; B 37 0 535 443 ;
C 115 ; WX 600 ; N s ; B 80 -13 504 443 ;
C 116 ; WX 600 ; N t ; B 37 -13 553 590 ;
C 117 ; WX 600 ; N u ; B 10 -13 558 443 ;
C 118 ; WX 600 ; N v ; B 31 0 568 430 ;
C 119 ; WX 600 ; N w ; B 15 0 585 430 ;
C 120 ; WX 600 ; N x ; B 5 -13 595 443 ;
C 121 ; WX 600 ; N y ; B 45 -173 575 430 ;
C 122 ; WX 600 ; N z ; B 58 0 534 430 ;
C 123 ; WX 600 ; N braceleft ; B 160 -167 500 603 ;
C 124 ; WX 600 ; N bar ; B 285 -173 315 603 ;
C 125 ; WX 600 ; N braceright ; B 100 -167 440 603 ;
C 126 ; WX 600 ; N asciitilde ; B 93 239 508 443 ;
C 161 ; WX 600 ; N exclamdown ; B 246 -173 349 443 ;
C 162 ; WX 600 ; N cent ; B 96 -13 505 603 ;
C 163 ; WX 600 ; N sterling ; B 48 -13 578 603 ;
C 165 ; WX 600 ; N yen ; B 18 0 581 590 ;
C 166 ; WX 600 ; N brokenbar ; B 285 -172 315 603 ;
C 167 ; WX 600 ; N section ; B 79 -173 552 603 ;
C 168 ; WX 600 ; N dieresis ; B 158 488 442 590 ;
C 169 ; WX 600 ; N copyright ; B 9 5 589 585 ;
C 170 ; WX 600 ; N ordfeminine ; B 42 -13 569 443 ;
C 171 ; WX 600 ; N guillemotleft ; B 99 63 514 443 ;
C 172 ; WX 600 ; N logicalnot ; B 104 127 496 331 ;
C 174 ; WX 600 ; N registered ; B 74 314 363 603 ;
C 175 ; WX 600 ; N macron ; B 158 513 443 543 ;
C 176 ; WX 600 ; N degree ; B 177 356 424 603 ;
C 177 ; WX 600 ; N plusminus ; B 87 36 517 430 ;
C 178 ; WX 600 ; N uni00B2 ; B 25 317 257 603 ;
C 179 ; WX 600 ; N uni00B3 ; B 25 314 257 590 ;
C 180 ; WX 600 ; N acute ; B 124 479 442 580 ;
C 181 ; WX 600 ; N uni00B5 ; B 31 -160 558 443 ;
C 182 ; WX 600 ; N paragraph ; B 66 -125 576 608 ;
C 183 ; WX 600 ; N periodcentered ; B 233 221 366 354 ;
C 184 ; WX 600 ; N cedilla ; B 131 -173 391 10 ;
C 185 ; WX 600 ; N uni00B9 ; B 25 323 247 590 ;
C 186 ; WX 600 ; N ordmasculine ; B 72 -13 529 443 ;
C 187 ; WX 600 ; N guillemotright ; B 99 63 514 443 ;
C 188 ; WX 600 ; N onequarter ; B 40 -14 555 603 ;
C 189 ; WX 600 ; N onehalf ; B 40 -13 558 603 ;
C 190 ; WX 600 ; N threequarters ; B 49 -14 555 603 ;
C 191 ; WX 600 ; N questiondown ; B 83 -173 506 443 ;
C 192 ; WX 600 ; N Agrave ; B 24 0 575 736 ;
C 193 ; WX 600 ; N Aacute ; B 24 0 575 736 ;
C 194 ; WX 600 ; N Acircumflex ; B 24 0 575 747 ;
C 195 ; WX 600 ; N Atilde ; B 24 0 575 754 ;
C 196 ; WX 600 ; N Adieresis ; B 24 0 575 738 ;
C 197 ; WX 600 ; N Aring ; B 24 0 575 769 ;
C 198 ; WX 600 ; N AE ; B 21 0 588 603 ;
C 199 ; WX 600 ; N Ccedilla ; B 33 -173 580 603 ;
C 200 ; WX 600 ; N Egrave ; B 41 0 552 736 ;
C 201 ; WX 600 ; N Eacute ; B 41 0 552 736 ;
C 202 ; WX 600 ; N Ecircumflex ; B 41 0 552 747 ;
C 203 ; WX 600 ; N Edieresis ; B 41 0 552 738 ;
C 204 ; WX 600 ; N Igrave ; B 102 0 498 736 ;
C 205 ; WX 600 ; N Iacute ; B 102 0 498 736 ;
C 206 ; WX 600 ; N Icircumflex ; B 94 0 505 747 ;
C 207 ; WX 600 ; N Idieresis ; B 102 0 498 738 ;
C 208 ; WX 600 ; N Eth ; B 20 0 570 603 ;
C 209 ; WX 600 ; N Ntilde ; B 23 0 577 729 ;
C 210 ; WX 600 ; N Ograve ; B 22 -13 577 737 ;
C 211 ; WX 600 ; N Oacute ; B 22 -13 577 737 ;
C 212 ; WX 600 ; N Ocircumflex ; B 22 -13 577 748 ;
C 213 ; WX 600 ; N Otilde ; B 22 -13 577 755 ;
C 214 ; WX 600 ; N Odieresis ; B 22 -13 577 751 ;
C 215 ; WX 600 ; N multiply ; B 137 52 463 378 ;
C 216 ; WX 600 ; N Oslash ; B 55 -13 554 603 ;
C 217 ; WX 600 ; N Ugrave ; B 33 -13 567 736 ;
C 218 ; WX 600 ; N Uacute ; B 33 -13 567 736 ;
C 219 ; WX 600 ; N Ucircumflex ; B 33 -13 567 747 ;
C 220 ; WX 600 ; N Udieresis ; B 33 -13 567 738 ;
C 221 ; WX 600 ; N Yacute ; B 32 0 568 735 ;
C 222 ; WX 600 ; N Thorn ; B 38 0 541 590 ;
C 223 ; WX 600 ; N germandbls ; B 40 -13 554 603 ;
C 224 ; WX 600 ; N agrave ; B 42 -13 569 590 ;
C 225 ; WX 600 ; N aacute ; B 42 -13 569 590 ;
C 226 ; WX 600 ; N acircumflex ; B 42 -13 569 601 ;
C 227 ; WX 600 ; N atilde ; B 42 -13 569 608 ;
C 228 ; WX 600 ; N adieresis ; B 42 -13 569 590 ;
C 229 ; WX 600 ; N aring ; B 42 -13 569 623 ;
C 230 ; WX 600 ; N ae ; B 5 -13 599 443 ;
C 231 ; WX 600 ; N ccedilla ; B 59 -173 554 443 ;
C 232 ; WX 600 ; N egrave ; B 66 -13 529 590 ;
C 233 ; WX 600 ; N eacute ; B 66 -13 529 590 ;
C 234 ; WX 600 ; N ecircumflex ; B 66 -13 529 601 ;
C 235 ; WX 600 ; N edieresis ; B 66 -13 529 590 ;
C 236 ; WX 600 ; N igrave ; B 90 0 509 590 ;
C 237 ; WX 600 ; N iacute ; B 90 0 509 590 ;
C 238 ; WX 600 ; N icircumflex ; B 90 0 509 601 ;
C 239 ; WX 600 ; N idieresis ; B 90 0 509 590 ;
C 240 ; WX 600 ; N eth ; B 38 -13 580 590 ;
C 241 ; WX 600 ; N ntilde ; B 14 0 567 583 ;
C 242 ; WX 600 ; N ograve ; B 72 -13 529 590 ;
C 243 ; WX 600 ; N oacute ; B 72 -13 529 590 ;
C 244 ; WX 600 ; N ocircumflex ; B 72 -13 529 601 ;
C 245 ; WX 600 ; N otilde ; B 72 -13 529 608 ;
C 246 ; WX 600 ; N odieresis ; B 72 -13 529 590 ;
C 247 ; WX 600 ; N divide ; B 60 -11 541 441 ;
C 248 ; WX 600 ; N oslash ; B 33 -167 568 598 ;
C 249 ; WX 600 ; N ugrave ; B 10 -13 558 591 ;
C 250 ; WX 600 ; N uacute ; B 10 -13 558 591 ;
C 251 ; WX 600 ; N ucircumflex ; B 10 -13 558 602 ;
C 252 ; WX 600 ; N udieresis ; B 10 -13 558 590 ;
C 253 ; WX 600 ; N yacute ; B 45 -173 575 590 ;
C 254 ; WX 600 ; N thorn ; B 33 -160 549 590 ;
C 255 ; WX 600 ; N ydieresis ; B 45 -173 575 590 ;
C -1 ; WX 600 ; N dotlessi ; B 90 0 509 430 ;
C -1 ; WX 600 ; N Lslash ; B 36 0 586 590 ;
C -1 ; WX 600 ; N lslash ; B 95 0 514 590 ;
C -1 ; WX 600 ; N Eng ; B 23 -173 577 603 ;
C -1 ; WX 600 ; N eng ; B 53 -173 498 443 ;
C -1 ; WX 600 ; N OE ; B 9 -13 588 603 ;
C -1 ; WX 600 ; N oe ; B 3 -13 603 443 ;
C -1 ; WX 600 ; N Scaron ; B 65 -13 535 757 ;
C -1 ; WX 600 ; N scaron ; B 80 -13 504 609 ;
C -1 ; WX 600 ; N Ydieresis ; B 32 0 568 736 ;
C -1 ; WX 600 ; N Zcaron ; B 63 0 532 757 ;
C -1 ; WX 600 ; N zcaron ; B 58 0 534 609 ;
C -1 ; WX 600 ; N florin ; B 14 -173 581 603 ;
C -1 ; WX 600 ; N circumflex ; B 94 472 505 591 ;
C -1 ; WX 600 ; N caron ; B 94 471 505 590 ;
C -1 ; WX 600 ; N breve ; B 178 483 421 590 ;
C -1 ; WX 600 ; N dotaccent ; B 250 492 325 570 ;
C -1 ; WX 600 ; N ring ; B 233 485 366 613 ;
C -1 ; WX 600 ; N ogonek ; B 204 -172 374 0 ;
C -1 ; WX 600 ; N tilde ; B 113 495 482 598 ;
C -1 ; WX 600 ; N hungarumlaut ; B 86 482 522 580 ;
C -1 ; WX 600 ; N uni0394 ; B 66 0 527 590 ;
C -1 ; WX 600 ; N uni03A9 ; B 42 0 554 603 ;
C -1 ; WX 600 ; N pi ; B 66 -13 559 430 ;
C -1 ; WX 600 ; N endash ; B 125 201 485 231 ;
C -1 ; WX 600 ; N emdash ; B 0 225 600 258 ;
C -1 ; WX 600 ; N quoteleft ; B 66 310 252 603 ;
C -1 ; WX 600 ; N quoteright ; B 66 310 252 603 ;
C -1 ; WX 600 ; N quotesinglbase ; B 216 -168 402 125 ;
C -1 ; WX 600 ; N quotedblleft ; B 66 310 454 603 ;
C -1 ; WX 600 ; N quotedblright ; B 66 310 454 603 ;
C -1 ; WX 600 ; N quotedblbase ; B 216 -168 402 125 ;
C -1 ; WX 600 ; N dagger ; B 46 -22 524 603 ;
C -1 ; WX 600 ; N daggerdbl ; B 56 -173 545 603 ;
C -1 ; WX 600 ; N bullet ; B 198 196 403 399 ;
C -1 ; WX 600 ; N ellipsis ; B 20 -13 580 120 ;
C -1 ; WX 600 ; N perthousand ; B -10 -13 612 603 ;
C -1 ; WX 600 ; N guilsinglleft ; B 187 63 414 443 ;
C -1 ; WX 600 ; N guilsinglright ; B 187 63 414 443 ;
C -1 ; WX 600 ; N fraction ; B 81 -13 532 603 ;
C -1 ; WX 600 ; N Euro ; B 12 -13 587 603 ;
C -1 ; WX 600 ; N uni2116 ; B 24 0 574 603 ;
C -1 ; WX 600 ; N trademark ; B 34 389 566 590 ;
C -1 ; WX 600 ; N oneeighth ; B 40 -13 562 603 ;
C -1 ; WX 600 ; N threeeighths ; B 49 -13 562 603 ;
C -1 ; WX 600 ; N fiveeighths ; B 57 -13 563 603 ;
C -1 ; WX 600 ; N seveneighths ; B 55 -13 562 603 ;
C -1 ; WX 600 ; N arrowleft ; B 14 32 586 396 ;
C -1 ; WX 600 ; N arrowup ; B 118 0 482 572 ;
C -1 ; WX 600 ; N arrowright ; B 14 32 586 396 ;
C -1 ; WX 600 ; N arrowdown ; B 118 0 482 572 ;
C -1 ; WX 600 ; N uni2196 ; B 99 -7 520 416 ;
C -1 ; WX 600 ; N uni2197 ; B 80 -6 501 417 ;
C -1 ; WX 600 ; N uni2198 ; B 81 3 504 424 ;
C -1 ; WX 600 ; N uni2199 ; B 96 3 519 424 ;
C -1 ; WX 600 ; N partialdiff ; B 108 -14 510 603 ;
C -1 ; WX 600 ; N product ; B 75 -160 526 590 ;
C -1 ; WX 600 ; N summation ; B 82 -160 546 590 ;
C -1 ; WX 600 ; N minus ; B 87 200 517 230 ;
C -1 ; WX 600 ; N radical ; B 120 -160 575 603 ;
C -1 ; WX 600 ; N infinity ; B 27 -13 573 245 ;
C -1 ; WX 600 ; N integral ; B 99 -173 502 603 ;
C -1 ; WX 600 ; N approxequal ; B 91 17 506 443 ;
C -1 ; WX 600 ; N notequal ; B 69 -13 531 426 ;
C -1 ; WX 600 ; N lessequal ; B 85 34 515 526 ;
C -1 ; WX 600 ; N greaterequal ; B 85 34 515 526 ;
C -1 ; WX 600 ; N lozenge ; B 135 -13 466 603 ;
C -1 ; WX 600 ; N uni2610 ; B 85 0 515 430 ;
C -1 ; WX 600 ; N ff ; B 23 0 589 603 ;
C -1 ; WX 600 ; N fi ; B 56 0 539 603 ;
C -1 ; WX 600 ; N fl ; B 50 0 545 603 ;
C -1 ; WX 1200 ; N .notdef ; B 140 -150 1060 700 ;
C -1 ; WX 900 ; N AE.duo ; B 51 0 826 603 ;
C -1 ; WX 600 ; N Femme ; B 72 -160 529 603 ;
C -1 ; WX 600 ; N Homme ; B 72 -13 589 576 ;
C -1 ; WX 300 ; N I.duo ; B 44 0 255 590 ;
C -1 ; WX 600 ; N LeftRightArrow ; B 4 32 596 396 ;
C -1 ; WX 900 ; N OE.duo ; B 9 -13 889 603 ;
C -1 ; WX 900 ; N Th.duo ; B 11 0 914 590 ;
C -1 ; WX 900 ; N W.duo ; B 17 0 889 590 ;
C -1 ; WX 900 ; N ae.duo ; B 42 -13 872 443 ;
C -1 ; WX 300 ; N asterisk.duo ; B 4 322 295 580 ;
C -1 ; WX 300 ; N backslash.duo ; B 50 -13 264 600 ;
C -1 ; WX 300 ; N braceleft.duo ; B 17 -177 277 601 ;
C -1 ; WX 300 ; N braceright.duo ; B 23 -177 283 601 ;
C -1 ; WX 300 ; N bracketleft.duo ; B 21 -97 280 590 ;
C -1 ; WX 300 ; N bracketright.duo ; B 20 -97 279 590 ;
C -1 ; WX 300 ; N bullet.duo ; B 48 196 253 399 ;
C -1 ; WX 300 ; N colon.duo ; B 84 -13 217 443 ;
C -1 ; WX 300 ; N comma.duo ; B 57 -168 243 125 ;
C -1 ; WX 600 ; N eight.dnom ; B 25 317 231 603 ;
C -1 ; WX 600 ; N eight.numr ; B 25 -13 231 273 ;
C -1 ; WX 600 ; N eight.osf ; B 78 -14 522 603 ;
C -1 ; WX 900 ; N ellipsis.duo ; B 120 -13 780 120 ;
C -1 ; WX 300 ; N endash.duo ; B 20 201 280 231 ;
C -1 ; WX 300 ; N exclam.duo ; B 96 -13 199 603 ;
C -1 ; WX 300 ; N exclamdown.duo ; B 96 -13 199 590 ;
C -1 ; WX 600 ; N f12 ; B 110 39 477 542 ;
C -1 ; WX 600 ; N f13 ; B 40 -13 575 603 ;
C -1 ; WX 900 ; N fb.duo ; B 60 -13 864 603 ;
C -1 ; WX 900 ; N ff.duo ; B 36 0 840 603 ;
C -1 ; WX 900 ; N ffi.duo ; B 36 0 877 603 ;
C -1 ; WX 900 ; N fh.duo ; B 60 0 876 603 ;
C -1 ; WX 600 ; N five.dnom ; B 25 316 238 590 ;
C -1 ; WX 600 ; N five.numr ; B 25 -13 238 261 ;
C -1 ; WX 600 ; N five.osf ; B 75 -173 521 493 ;
C -1 ; WX 600 ; N fj ; B 56 -173 510 603 ;
C -1 ; WX 900 ; N fk.duo ; B 25 -13 893 603 ;
C -1 ; WX 600 ; N four.dnom ; B 25 321 290 603 ;
C -1 ; WX 600 ; N four.numr ; B 25 -14 290 268 ;
C -1 ; WX 600 ; N four.osf ; B 45 -173 559 492 ;
C -1 ; WX 600 ; N ft ; B 14 -14 590 603 ;
C -1 ; WX 900 ; N ft.duo ; B 25 -13 841 603 ;
C -1 ; WX 300 ; N guillemotleft.duo ; B 32 73 269 443 ;
C -1 ; WX 300 ; N guillemotright.duo ; B 32 73 269 443 ;
C -1 ; WX 300 ; N guilsinglleft.duo ; B 36 63 263 443 ;
C -1 ; WX 300 ; N guilsinglright_duo ; B 37 63 264 443 ;
C -1 ; WX 300 ; N hyphen.duo ; B 9 201 291 231 ;
C -1 ; WX 300 ; N i.duo ; B 40 0 263 590 ;
C -1 ; WX 300 ; N iacute.duo ; B 35 -2 267 590 ;
C -1 ; WX 300 ; N icircumflex.duo ; B 13 0 287 590 ;
C -1 ; WX 300 ; N idieresis.duo ; B 8 0 292 590 ;
C -1 ; WX 300 ; N dotlessi.duo ; B 40 0 263 430 ;
C -1 ; WX 300 ; N igrave.duo ; B 40 0 272 591 ;
C -1 ; WX 900 ; N infinity.duo ; B 112 -13 798 315 ;
C -1 ; WX 300 ; N j.duo ; B 67 -173 250 590 ;
C -1 ; WX 300 ; N l.duo ; B 40 0 263 590 ;
C -1 ; WX 300 ; N lslash.duo ; B 49 0 272 590 ;
C -1 ; WX 900 ; N m.duo ; B 31 0 882 443 ;
C -1 ; WX 600 ; N nine.dnom ; B 25 317 235 603 ;
C -1 ; WX 600 ; N nine.numr ; B 25 -13 235 273 ;
C -1 ; WX 600 ; N nine.osf ; B 84 -173 516 493 ;
C -1 ; WX 600 ; N nouveauGlyphe ; B 6 -13 625 443 ;
C -1 ; WX 900 ; N uni2116.duo ; B 26 0 862 605 ;
C -1 ; WX 900 ; N oe.duo ; B 8 -13 898 443 ;
C -1 ; WX 600 ; N one.dnom ; B 25 323 247 590 ;
C -1 ; WX 300 ; N one.duo ; B 27 0 286 590 ;
C -1 ; WX 600 ; N one.numr ; B 25 0 247 267 ;
C -1 ; WX 600 ; N one.osf ; B 97 -50 540 480 ;
C -1 ; WX 300 ; N one.osf.duo ; B 25 0 247 590 ;
C -1 ; WX 300 ; N period.duo ; B 83 -13 216 120 ;
C -1 ; WX 300 ; N periodcentered.duo ; B 83 221 216 354 ;
C -1 ; WX 900 ; N perthousand.duo ; B 59 -13 837 603 ;
C -1 ; WX 900 ; N qu.duo ; B 8 -172 897 603 ;
C -1 ; WX 300 ; N quoteleft.duo ; B 57 310 243 603 ;
C -1 ; WX 300 ; N quoteright.duo ; B 57 310 243 603 ;
C -1 ; WX 300 ; N quotesingle.duo ; B 0 310 186 603 ;
C -1 ; WX 300 ; N registered.duo ; B 5 314 294 603 ;
C -1 ; WX 300 ; N semicolon.duo ; B 51 -168 237 443 ;
C -1 ; WX 600 ; N seven.dnom ; B 25 327 263 603 ;
C -1 ; WX 600 ; N seven.numr ; B 25 -13 263 263 ;
C -1 ; WX 600 ; N seven.osf ; B 80 -173 530 494 ;
C -1 ; WX 600 ; N sfd ; B -25 -13 594 443 ;
C -1 ; WX 600 ; N six.dnom ; B 25 317 235 603 ;
C -1 ; WX 600 ; N six.numr ; B 25 -13 235 273 ;
C -1 ; WX 600 ; N six.osf ; B 89 -63 521 603 ;
C -1 ; WX 300 ; N slash.duo ; B 50 -13 264 600 ;
C -1 ; WX 300 ; N space.duo ; B 0 0 0 0 ;
C -1 ; WX 600 ; N three.dnom ; B 25 314 257 590 ;
C -1 ; WX 600 ; N three.numr ; B 25 -13 257 263 ;
C -1 ; WX 600 ; N three.osf ; B 85 -173 526 494 ;
C -1 ; WX 900 ; N tt.duo ; B 20 -13 896 590 ;
C -1 ; WX 600 ; N two.dnom ; B 25 317 257 603 ;
C -1 ; WX 600 ; N two.numr ; B 25 -13 257 273 ;
C -1 ; WX 600 ; N two.osf ; B 73 -63 546 493 ;
C -1 ; WX 900 ; N w.duo ; B 42 0 858 430 ;
C -1 ; WX 600 ; N zero.dnom ; B 25 316 272 603 ;
C -1 ; WX 600 ; N zero.numr ; B 25 -13 272 274 ;
C -1 ; WX 600 ; N zero.osf ; B 52 -63 547 493 ;
C -1 ; WX 600 ; N M.Mme ; B 9 -13 590 590 ;
C -1 ; WX 900 ; N Monsieur.duo ; B 6 -13 752 590 ;
C -1 ; WX 900 ; N Madame.duo ; B 6 -13 902 590 ;
C -1 ; WX 600 ; N vtf ; B 5 -13 611 603 ;
C -1 ; WX 600 ; N ialternate ; B 90 0 509 590 ;
C -1 ; WX 300 ; N ialternate.duo ; B 40 0 263 590 ;
EndCharMetrics
EndFontMetrics
