StartFontMetrics 2.0
Comment Generated by FontForge 20190427
Comment Creation Date: Mon Aug 26 00:08:26 2019
FontName Compagnon-Roman
FullName Compagnon Roman
FamilyName Compagnon Roman
Weight Normal
Notice (2018 - Juliette Duhe, Lea Pradine)
ItalicAngle 0
IsFixedPitch false
UnderlinePosition -100
UnderlineThickness 50
Version 001.000
EncodingScheme ISO10646-1
FontBBox -47 -173 1060 776
CapHeight 590
XHeight 430
Ascender 590
Descender -160
StartCharMetrics 369
C 32 ; WX 600 ; N space ; B 0 0 0 0 ;
C 33 ; WX 600 ; N exclam ; B 246 -13 349 603 ;
C 34 ; WX 600 ; N quotedbl ; B 35 243 559 602 ;
C 35 ; WX 600 ; N numbersign ; B 70 10 571 581 ;
C 36 ; WX 600 ; N dollar ; B 65 -13 535 603 ;
C 37 ; WX 600 ; N percent ; B 46 -15 556 603 ;
C 38 ; WX 600 ; N ampersand ; B 17 -13 591 603 ;
C 39 ; WX 600 ; N quotesingle ; B 93 244 342 603 ;
C 40 ; WX 600 ; N parenleft ; B 232 -109 512 603 ;
C 41 ; WX 600 ; N parenright ; B 88 -109 368 603 ;
C 42 ; WX 600 ; N asterisk ; B 130 281 471 592 ;
C 43 ; WX 600 ; N plus ; B 87 0 517 430 ;
C 44 ; WX 600 ; N comma ; B 173 -169 422 190 ;
C 45 ; WX 600 ; N hyphen ; B 87 190 517 240 ;
C 46 ; WX 600 ; N period ; B 193 -13 393 185 ;
C 47 ; WX 600 ; N slash ; B 70 -15 527 603 ;
C 48 ; WX 600 ; N zero ; B 62 -13 537 603 ;
C 49 ; WX 600 ; N one ; B 65 0 540 590 ;
C 50 ; WX 600 ; N two ; B 67 -13 551 603 ;
C 51 ; WX 600 ; N three ; B 72 -13 512 590 ;
C 52 ; WX 600 ; N four ; B 35 0 559 603 ;
C 53 ; WX 600 ; N five ; B 91 -13 531 590 ;
C 54 ; WX 600 ; N six ; B 68 -13 521 603 ;
C 55 ; WX 600 ; N seven ; B 71 0 549 601 ;
C 56 ; WX 600 ; N eight ; B 76 -13 523 603 ;
C 57 ; WX 600 ; N nine ; B 71 -14 524 602 ;
C 58 ; WX 600 ; N colon ; B 234 -13 367 443 ;
C 59 ; WX 600 ; N semicolon ; B 193 -119 361 443 ;
C 60 ; WX 600 ; N less ; B 62 -13 494 477 ;
C 61 ; WX 600 ; N equal ; B 70 98 531 332 ;
C 62 ; WX 600 ; N greater ; B 89 -13 521 477 ;
C 63 ; WX 600 ; N question ; B 84 -13 507 603 ;
C 64 ; WX 600 ; N at ; B 30 -93 598 532 ;
C 65 ; WX 600 ; N A ; B 21 0 578 603 ;
C 66 ; WX 600 ; N B ; B 15 -4 554 601 ;
C 67 ; WX 600 ; N C ; B 33 -13 584 603 ;
C 68 ; WX 600 ; N D ; B 15 -3 574 603 ;
C 69 ; WX 600 ; N E ; B 30 0 554 590 ;
C 70 ; WX 600 ; N F ; B 25 0 553 590 ;
C 71 ; WX 600 ; N G ; B 29 -13 582 603 ;
C 72 ; WX 600 ; N H ; B 15 0 585 590 ;
C 73 ; WX 600 ; N I ; B 101 0 499 590 ;
C 74 ; WX 600 ; N J ; B 50 -13 584 590 ;
C 75 ; WX 600 ; N K ; B 16 -13 593 590 ;
C 76 ; WX 600 ; N L ; B 46 0 577 590 ;
C 77 ; WX 600 ; N M ; B 24 0 580 590 ;
C 78 ; WX 600 ; N N ; B 10 0 577 603 ;
C 79 ; WX 600 ; N O ; B 28 -13 573 603 ;
C 80 ; WX 600 ; N P ; B 43 0 556 602 ;
C 81 ; WX 600 ; N Q ; B 13 -166 538 603 ;
C 82 ; WX 600 ; N R ; B 21 -13 584 598 ;
C 83 ; WX 600 ; N S ; B 65 -13 535 603 ;
C 84 ; WX 600 ; N T ; B 36 0 571 590 ;
C 85 ; WX 600 ; N U ; B 28 -13 572 590 ;
C 86 ; WX 600 ; N V ; B 24 0 575 590 ;
C 87 ; WX 600 ; N W ; B 15 0 585 590 ;
C 88 ; WX 600 ; N X ; B 35 0 563 590 ;
C 89 ; WX 600 ; N Y ; B 27 0 572 590 ;
C 90 ; WX 600 ; N Z ; B 67 0 533 590 ;
C 91 ; WX 600 ; N bracketleft ; B 260 -93 526 590 ;
C 92 ; WX 600 ; N backslash ; B 73 -15 530 603 ;
C 93 ; WX 600 ; N bracketright ; B 74 -93 340 590 ;
C 94 ; WX 600 ; N asciicircum ; B 142 341 458 603 ;
C 95 ; WX 600 ; N underscore ; B 125 -83 485 -13 ;
C 96 ; WX 600 ; N grave ; B 144 472 467 580 ;
C 97 ; WX 600 ; N a ; B 42 -13 570 442 ;
C 98 ; WX 600 ; N b ; B 35 -13 549 590 ;
C 99 ; WX 600 ; N c ; B 59 -12 553 443 ;
C 100 ; WX 600 ; N d ; B 38 -13 580 590 ;
C 101 ; WX 600 ; N e ; B 66 -12 529 442 ;
C 102 ; WX 600 ; N f ; B 56 0 564 603 ; L t ft ; L j fj ; L f ff ; L l fl ; L i fi ;
C 103 ; WX 600 ; N g ; B 26 -173 585 443 ;
C 104 ; WX 600 ; N h ; B 41 0 560 590 ;
C 105 ; WX 600 ; N i ; B 97 0 516 574 ;
C 106 ; WX 600 ; N j ; B 100 -173 475 571 ;
C 107 ; WX 600 ; N k ; B 10 -12 562 590 ;
C 108 ; WX 600 ; N l ; B 94 0 513 590 ;
C 109 ; WX 600 ; N m ; B 3 0 591 443 ;
C 110 ; WX 600 ; N n ; B 37 0 571 443 ;
C 111 ; WX 600 ; N o ; B 62 -13 537 443 ;
C 112 ; WX 600 ; N p ; B 18 -160 560 443 ;
C 113 ; WX 600 ; N q ; B 52 -160 566 443 ;
C 114 ; WX 600 ; N r ; B 44 0 536 443 ;
C 115 ; WX 600 ; N s ; B 80 -12 504 442 ;
C 116 ; WX 600 ; N t ; B 37 -13 553 590 ;
C 117 ; WX 600 ; N u ; B 15 -13 554 443 ;
C 118 ; WX 600 ; N v ; B 34 0 566 430 ;
C 119 ; WX 600 ; N w ; B 18 0 582 430 ;
C 120 ; WX 600 ; N x ; B 5 -13 596 443 ;
C 121 ; WX 600 ; N y ; B 43 -173 571 430 ;
C 122 ; WX 600 ; N z ; B 58 0 534 430 ;
C 123 ; WX 600 ; N braceleft ; B 157 -170 504 602 ;
C 124 ; WX 600 ; N bar ; B 277 -160 327 591 ;
C 125 ; WX 600 ; N braceright ; B 100 -170 447 602 ;
C 126 ; WX 600 ; N asciitilde ; B 91 238 507 442 ;
C 161 ; WX 600 ; N exclamdown ; B 246 -173 349 443 ;
C 162 ; WX 600 ; N cent ; B 99 -13 511 603 ;
C 163 ; WX 600 ; N sterling ; B 48 -13 583 603 ;
C 165 ; WX 600 ; N yen ; B 21 0 578 590 ;
C 166 ; WX 600 ; N brokenbar ; B 277 -160 327 591 ;
C 167 ; WX 600 ; N section ; B 58 -173 541 603 ;
C 168 ; WX 600 ; N dieresis ; B 150 478 435 580 ;
C 169 ; WX 600 ; N copyright ; B 9 5 589 585 ;
C 170 ; WX 600 ; N ordfeminine ; B 42 -13 570 442 ;
C 171 ; WX 600 ; N guillemotleft ; B 89 66 512 444 ;
C 172 ; WX 600 ; N logicalnot ; B 103 117 497 331 ;
C 174 ; WX 600 ; N registered ; B 72 315 364 603 ;
C 175 ; WX 600 ; N macron ; B 158 493 443 543 ;
C 176 ; WX 600 ; N degree ; B 178 360 423 605 ;
C 177 ; WX 600 ; N plusminus ; B 87 34 517 430 ;
C 178 ; WX 600 ; N uni00B2 ; B 25 316 259 603 ;
C 179 ; WX 600 ; N uni00B3 ; B 25 314 257 590 ;
C 180 ; WX 600 ; N acute ; B 122 472 445 580 ;
C 181 ; WX 600 ; N uni00B5 ; B 15 -160 554 443 ;
C 182 ; WX 600 ; N paragraph ; B 50 -125 574 604 ;
C 183 ; WX 600 ; N periodcentered ; B 200 197 400 395 ;
C 184 ; WX 600 ; N cedilla ; B 138 -173 393 10 ;
C 185 ; WX 600 ; N uni00B9 ; B 25 323 249 590 ;
C 186 ; WX 600 ; N ordmasculine ; B 62 -13 537 443 ;
C 187 ; WX 600 ; N guillemotright ; B 88 66 511 444 ;
C 188 ; WX 600 ; N onequarter ; B 33 -13 560 590 ;
C 189 ; WX 600 ; N onehalf ; B 33 -13 558 590 ;
C 190 ; WX 600 ; N threequarters ; B 48 -13 560 590 ;
C 191 ; WX 600 ; N questiondown ; B 83 -172 506 444 ;
C 192 ; WX 600 ; N Agrave ; B 21 0 578 745 ;
C 193 ; WX 600 ; N Aacute ; B 21 0 578 740 ;
C 194 ; WX 600 ; N Acircumflex ; B 21 0 578 751 ;
C 195 ; WX 600 ; N Atilde ; B 21 0 578 763 ;
C 196 ; WX 600 ; N Adieresis ; B 21 0 578 746 ;
C 197 ; WX 600 ; N Aring ; B 21 0 578 773 ;
C 198 ; WX 600 ; N AE ; B 10 -1 585 603 ;
C 199 ; WX 600 ; N Ccedilla ; B 33 -173 584 603 ;
C 200 ; WX 600 ; N Egrave ; B 31 0 554 745 ;
C 201 ; WX 600 ; N Eacute ; B 30 0 554 740 ;
C 202 ; WX 600 ; N Ecircumflex ; B 30 0 554 751 ;
C 203 ; WX 600 ; N Edieresis ; B 30 0 554 746 ;
C 204 ; WX 600 ; N Igrave ; B 101 0 499 745 ;
C 205 ; WX 600 ; N Iacute ; B 101 0 499 740 ;
C 206 ; WX 600 ; N Icircumflex ; B 89 0 513 751 ;
C 207 ; WX 600 ; N Idieresis ; B 101 0 499 746 ;
C 208 ; WX 600 ; N Eth ; B 15 -3 574 603 ;
C 209 ; WX 600 ; N Ntilde ; B 10 0 577 763 ;
C 210 ; WX 600 ; N Ograve ; B 28 -13 573 758 ;
C 211 ; WX 600 ; N Oacute ; B 28 -13 573 753 ;
C 212 ; WX 600 ; N Ocircumflex ; B 28 -13 573 764 ;
C 213 ; WX 600 ; N Otilde ; B 28 -13 573 776 ;
C 214 ; WX 600 ; N Odieresis ; B 28 -13 573 759 ;
C 215 ; WX 600 ; N multiply ; B 134 45 473 385 ;
C 216 ; WX 600 ; N Oslash ; B 29 -15 574 603 ;
C 217 ; WX 600 ; N Ugrave ; B 28 -13 572 745 ;
C 218 ; WX 600 ; N Uacute ; B 28 -13 572 740 ;
C 219 ; WX 600 ; N Ucircumflex ; B 28 -13 572 751 ;
C 220 ; WX 600 ; N Udieresis ; B 28 -13 572 746 ;
C 221 ; WX 600 ; N Yacute ; B 27 0 572 740 ;
C 222 ; WX 600 ; N Thorn ; B 38 0 546 590 ;
C 223 ; WX 600 ; N germandbls ; B 20 -13 544 603 ;
C 224 ; WX 600 ; N agrave ; B 42 -13 570 585 ;
C 225 ; WX 600 ; N aacute ; B 42 -13 570 580 ;
C 226 ; WX 600 ; N acircumflex ; B 42 -13 570 591 ;
C 227 ; WX 600 ; N atilde ; B 42 -13 570 603 ;
C 228 ; WX 600 ; N adieresis ; B 42 -13 570 580 ;
C 229 ; WX 600 ; N aring ; B 42 -13 570 613 ;
C 230 ; WX 600 ; N ae ; B 6 -12 597 443 ;
C 231 ; WX 600 ; N ccedilla ; B 59 -173 553 443 ;
C 232 ; WX 600 ; N egrave ; B 66 -12 529 580 ;
C 233 ; WX 600 ; N eacute ; B 66 -12 529 580 ;
C 234 ; WX 600 ; N ecircumflex ; B 66 -12 529 591 ;
C 235 ; WX 600 ; N edieresis ; B 66 -12 529 580 ;
C 236 ; WX 600 ; N igrave ; B 90 0 509 585 ;
C 237 ; WX 600 ; N iacute ; B 90 0 509 580 ;
C 238 ; WX 600 ; N icircumflex ; B 90 0 518 591 ;
C 239 ; WX 600 ; N idieresis ; B 90 0 509 580 ;
C 240 ; WX 600 ; N eth ; B 37 -13 573 590 ;
C 241 ; WX 600 ; N ntilde ; B 37 0 571 603 ;
C 242 ; WX 600 ; N ograve ; B 62 -13 537 580 ;
C 243 ; WX 600 ; N oacute ; B 62 -13 537 580 ;
C 244 ; WX 600 ; N ocircumflex ; B 62 -13 537 591 ;
C 245 ; WX 600 ; N otilde ; B 62 -13 537 603 ;
C 246 ; WX 600 ; N odieresis ; B 62 -13 537 580 ;
C 247 ; WX 600 ; N divide ; B 60 -11 541 441 ;
C 248 ; WX 600 ; N oslash ; B 62 -164 537 594 ;
C 249 ; WX 600 ; N ugrave ; B 15 -13 554 580 ;
C 250 ; WX 600 ; N uacute ; B 15 -13 554 580 ;
C 251 ; WX 600 ; N ucircumflex ; B 15 -13 554 591 ;
C 252 ; WX 600 ; N udieresis ; B 15 -13 554 580 ;
C 253 ; WX 600 ; N yacute ; B 43 -173 571 580 ;
C 254 ; WX 600 ; N thorn ; B 46 -160 560 591 ;
C 255 ; WX 600 ; N ydieresis ; B 43 -173 571 580 ;
C -1 ; WX 600 ; N dotlessi ; B 90 0 509 430 ;
C -1 ; WX 600 ; N Lslash ; B 46 0 577 590 ;
C -1 ; WX 600 ; N lslash ; B 94 0 513 590 ;
C -1 ; WX 600 ; N Eng ; B 27 -173 577 590 ;
C -1 ; WX 600 ; N eng ; B 37 -173 495 443 ;
C -1 ; WX 600 ; N OE ; B 22 -3 585 593 ;
C -1 ; WX 600 ; N oe ; B 6 -13 591 443 ;
C -1 ; WX 600 ; N Scaron ; B 65 -13 535 750 ;
C -1 ; WX 600 ; N scaron ; B 76 -12 504 591 ;
C -1 ; WX 600 ; N Ydieresis ; B 27 0 572 746 ;
C -1 ; WX 600 ; N Zcaron ; B 67 0 533 750 ;
C -1 ; WX 600 ; N zcaron ; B 58 0 534 591 ;
C -1 ; WX 600 ; N florin ; B 18 -172 584 603 ;
C -1 ; WX 600 ; N circumflex ; B 76 472 500 591 ;
C -1 ; WX 600 ; N caron ; B 76 472 500 591 ;
C -1 ; WX 600 ; N breve ; B 174 469 426 590 ;
C -1 ; WX 600 ; N dotaccent ; B 245 464 345 564 ;
C -1 ; WX 600 ; N ring ; B 226 472 372 613 ;
C -1 ; WX 600 ; N ogonek ; B 198 -173 377 0 ;
C -1 ; WX 600 ; N tilde ; B 111 485 490 603 ;
C -1 ; WX 600 ; N hungarumlaut ; B 84 472 528 580 ;
C -1 ; WX 600 ; N uni0394 ; B 66 0 533 603 ;
C -1 ; WX 600 ; N uni03A9 ; B 32 0 568 602 ;
C -1 ; WX 600 ; N pi ; B 66 -13 563 430 ;
C -1 ; WX 600 ; N endash ; B 125 211 485 271 ;
C -1 ; WX 600 ; N emdash ; B -1 216 600 266 ;
C -1 ; WX 600 ; N quoteleft ; B 40 243 289 602 ;
C -1 ; WX 600 ; N quoteright ; B 40 243 289 602 ;
C -1 ; WX 600 ; N quotesinglbase ; B 134 -169 383 190 ;
C -1 ; WX 600 ; N quotedblleft ; B 40 243 560 602 ;
C -1 ; WX 600 ; N quotedblright ; B 40 243 560 602 ;
C -1 ; WX 600 ; N quotedblbase ; B 134 -169 383 190 ;
C -1 ; WX 600 ; N dagger ; B 41 -22 529 603 ;
C -1 ; WX 600 ; N daggerdbl ; B 49 -173 522 603 ;
C -1 ; WX 600 ; N bullet ; B 146 151 440 442 ;
C -1 ; WX 600 ; N ellipsis ; B 20 -13 580 120 ;
C -1 ; WX 600 ; N perthousand ; B -14 -15 611 603 ;
C -1 ; WX 600 ; N guilsinglleft ; B 177 66 418 444 ;
C -1 ; WX 600 ; N guilsinglright ; B 182 66 423 444 ;
C -1 ; WX 600 ; N fraction ; B 110 33 486 541 ;
C -1 ; WX 600 ; N Euro ; B 12 -13 590 603 ;
C -1 ; WX 600 ; N uni2116 ; B 24 0 576 603 ;
C -1 ; WX 600 ; N trademark ; B 34 389 566 590 ;
C -1 ; WX 600 ; N oneeighth ; B 33 -13 554 590 ;
C -1 ; WX 600 ; N threeeighths ; B 48 -13 565 590 ;
C -1 ; WX 600 ; N fiveeighths ; B 55 -13 565 590 ;
C -1 ; WX 600 ; N seveneighths ; B 55 -13 565 603 ;
C -1 ; WX 600 ; N arrowleft ; B 14 24 586 402 ;
C -1 ; WX 600 ; N arrowup ; B 110 0 488 572 ;
C -1 ; WX 600 ; N arrowright ; B 14 24 586 402 ;
C -1 ; WX 600 ; N arrowdown ; B 110 0 488 572 ;
C -1 ; WX 600 ; N uni2196 ; B 86 -7 520 429 ;
C -1 ; WX 600 ; N uni2197 ; B 82 -6 518 428 ;
C -1 ; WX 600 ; N uni2198 ; B 84 -4 518 432 ;
C -1 ; WX 600 ; N uni2199 ; B 84 -4 518 432 ;
C -1 ; WX 600 ; N partialdiff ; B 107 -13 511 603 ;
C -1 ; WX 600 ; N product ; B 70 -160 520 590 ;
C -1 ; WX 600 ; N summation ; B 79 -160 542 590 ;
C -1 ; WX 600 ; N minus ; B 87 190 517 240 ;
C -1 ; WX 600 ; N radical ; B 120 -160 590 603 ;
C -1 ; WX 600 ; N infinity ; B 30 -13 570 253 ;
C -1 ; WX 600 ; N integral ; B 79 -173 498 603 ;
C -1 ; WX 600 ; N approxequal ; B 91 16 507 442 ;
C -1 ; WX 600 ; N notequal ; B 70 -20 531 430 ;
C -1 ; WX 600 ; N lessequal ; B 87 34 520 538 ;
C -1 ; WX 600 ; N greaterequal ; B 82 34 515 538 ;
C -1 ; WX 600 ; N lozenge ; B 121 -13 478 603 ;
C -1 ; WX 600 ; N uni2610 ; B 85 0 515 430 ;
C -1 ; WX 600 ; N ff ; B 22 0 580 603 ;
C -1 ; WX 600 ; N fi ; B 57 0 543 603 ;
C -1 ; WX 600 ; N fl ; B 32 0 580 603 ;
C -1 ; WX 1200 ; N .notdef ; B 140 -150 1060 700 ;
C -1 ; WX 600 ; N M.Mme ; B -1 -13 589 590 ;
C -1 ; WX 900 ; N AE.duo ; B 54 0 867 603 ;
C -1 ; WX 300 ; N I.duo ; B 38 0 262 590 ;
C -1 ; WX 900 ; N OE.duo ; B 7 -13 878 603 ;
C -1 ; WX 900 ; N W.duo ; B 17 0 883 590 ;
C -1 ; WX 900 ; N ae.duo ; B 46 -13 860 442 ;
C -1 ; WX 300 ; N i.duo ; B 40 0 272 573 ;
C -1 ; WX 300 ; N dotlessi.duo ; B 34 0 266 430 ;
C -1 ; WX 300 ; N iacute.duo ; B 31 0 268 580 ;
C -1 ; WX 300 ; N icircumflex.duo ; B 13 0 287 590 ;
C -1 ; WX 300 ; N idieresis.duo ; B 7 0 292 564 ;
C -1 ; WX 300 ; N igrave.duo ; B 31 0 268 580 ;
C -1 ; WX 300 ; N j.duo ; B 66 -173 257 571 ;
C -1 ; WX 300 ; N l.duo ; B 40 0 272 590 ;
C -1 ; WX 300 ; N lslash.duo ; B 49 0 281 590 ;
C -1 ; WX 900 ; N m.duo ; B 37 0 870 444 ;
C -1 ; WX 900 ; N oe.duo ; B 11 -13 889 443 ;
C -1 ; WX 900 ; N w.duo ; B 60 0 839 430 ;
C -1 ; WX 300 ; N one.duo ; B 14 0 286 590 ;
C -1 ; WX 600 ; N zero.osf ; B 52 -63 547 493 ;
C -1 ; WX 600 ; N one.osf ; B 77 -50 540 480 ;
C -1 ; WX 600 ; N two.osf ; B 67 -63 546 493 ;
C -1 ; WX 600 ; N three.osf ; B 79 -173 537 493 ;
C -1 ; WX 600 ; N four.osf ; B 35 -173 559 494 ;
C -1 ; WX 600 ; N five.osf ; B 75 -173 523 493 ;
C -1 ; WX 600 ; N six.osf ; B 88 -63 531 603 ;
C -1 ; WX 600 ; N seven.osf ; B 71 -173 541 493 ;
C -1 ; WX 600 ; N eight.osf ; B 71 -67 528 603 ;
C -1 ; WX 600 ; N nine.osf ; B 130 -121 573 495 ;
C -1 ; WX 300 ; N one.osf.duo ; B 20 0 256 590 ;
C -1 ; WX 600 ; N zero.dnom ; B 25 316 272 603 ;
C -1 ; WX 600 ; N one.dnom ; B 25 323 249 590 ;
C -1 ; WX 600 ; N two.dnom ; B 25 316 259 603 ;
C -1 ; WX 600 ; N three.dnom ; B 25 314 257 590 ;
C -1 ; WX 600 ; N four.dnom ; B 25 320 290 603 ;
C -1 ; WX 600 ; N five.dnom ; B 25 316 240 590 ;
C -1 ; WX 600 ; N six.dnom ; B 25 317 238 603 ;
C -1 ; WX 600 ; N seven.dnom ; B 25 327 280 603 ;
C -1 ; WX 600 ; N eight.dnom ; B 25 317 238 603 ;
C -1 ; WX 600 ; N nine.dnom ; B 25 316 238 602 ;
C -1 ; WX 600 ; N zero.numr ; B 25 -13 272 274 ;
C -1 ; WX 600 ; N one.numr ; B 25 0 249 267 ;
C -1 ; WX 600 ; N two.numr ; B 25 -13 259 274 ;
C -1 ; WX 600 ; N three.numr ; B 25 -13 257 263 ;
C -1 ; WX 600 ; N four.numr ; B 25 -13 290 270 ;
C -1 ; WX 600 ; N five.numr ; B 25 -13 240 261 ;
C -1 ; WX 600 ; N six.numr ; B 25 -12 238 274 ;
C -1 ; WX 600 ; N seven.numr ; B 25 -13 274 263 ;
C -1 ; WX 600 ; N eight.numr ; B 25 -13 238 273 ;
C -1 ; WX 600 ; N nine.numr ; B 25 -13 238 273 ;
C -1 ; WX 300 ; N asterisk.duo ; B 34 379 267 592 ;
C -1 ; WX 300 ; N backslash.duo ; B 34 -13 267 606 ;
C -1 ; WX 300 ; N periodcentered.duo ; B 50 197 250 395 ;
C -1 ; WX 300 ; N bullet.duo ; B 3 151 297 442 ;
C -1 ; WX 300 ; N colon.duo ; B 84 -13 217 443 ;
C -1 ; WX 300 ; N comma.duo ; B 4 -169 253 190 ;
C -1 ; WX 900 ; N ellipsis.duo ; B 90 -13 810 120 ;
C -1 ; WX 300 ; N exclam.duo ; B 96 -13 199 603 ;
C -1 ; WX 300 ; N exclamdown.duo ; B 96 -173 199 443 ;
C -1 ; WX 300 ; N period.duo ; B 50 -13 250 185 ;
C -1 ; WX 300 ; N quotesingle.duo ; B 0 257 239 603 ;
C -1 ; WX 300 ; N semicolon.duo ; B 53 -120 221 443 ;
C -1 ; WX 300 ; N slash.duo ; B 31 -13 264 606 ;
C -1 ; WX 300 ; N braceleft.duo ; B 2 -170 299 602 ;
C -1 ; WX 300 ; N braceright.duo ; B 1 -170 298 602 ;
C -1 ; WX 300 ; N bracketleft.duo ; B 17 -93 283 590 ;
C -1 ; WX 300 ; N bracketright.duo ; B 17 -93 283 590 ;
C -1 ; WX 300 ; N endash.duo ; B 20 211 280 271 ;
C -1 ; WX 300 ; N hyphen.duo ; B 10 211 290 271 ;
C -1 ; WX 300 ; N guillemotleft.duo ; B 30 66 259 444 ;
C -1 ; WX 300 ; N guillemotright.duo ; B 41 66 270 444 ;
C -1 ; WX 300 ; N guilsinglleft.duo ; B 30 63 270 441 ;
C -1 ; WX 300 ; N quoteleft.duo ; B 25 243 274 602 ;
C -1 ; WX 300 ; N quoteright.duo ; B 25 243 274 602 ;
C -1 ; WX 300 ; N guilsinglright_duo ; B 30 63 270 441 ;
C -1 ; WX 300 ; N space.duo ; B 0 0 0 0 ;
C -1 ; WX 900 ; N infinity.duo ; B 113 -12 787 320 ;
C -1 ; WX 900 ; N perthousand.duo ; B 63 -15 837 603 ;
C -1 ; WX 300 ; N registered.duo ; B 4 315 296 603 ;
C -1 ; WX 900 ; N uni2116.duo ; B 10 0 862 605 ;
C -1 ; WX 900 ; N ft.duo ; B 29 -13 890 603 ;
C -1 ; WX 900 ; N fk.duo ; B 27 -12 872 603 ;
C -1 ; WX 900 ; N ff.duo ; B 86 0 850 603 ;
C -1 ; WX 900 ; N ffi.duo ; B 59 0 842 603 ;
C -1 ; WX 900 ; N fh.duo ; B 55 0 864 603 ;
C -1 ; WX 900 ; N fb.duo ; B 58 -13 848 603 ;
C -1 ; WX 600 ; N fj ; B 58 -173 516 603 ;
C -1 ; WX 600 ; N f12 ; B 110 33 486 541 ;
C -1 ; WX 600 ; N f13 ; B 44 -13 567 603 ;
C -1 ; WX 600 ; N f14 ; B 44 -13 555 603 ;
C -1 ; WX 600 ; N f34 ; B 48 -13 547 603 ;
C -1 ; WX 600 ; N f18 ; B 43 -13 557 603 ;
C -1 ; WX 600 ; N f38 ; B 49 -13 550 603 ;
C -1 ; WX 600 ; N f58 ; B 51 -13 549 603 ;
C -1 ; WX 600 ; N f78 ; B 65 -14 535 603 ;
C -1 ; WX 900 ; N tt.duo ; B 17 -13 873 590 ;
C -1 ; WX 900 ; N Th.duo ; B 9 0 893 590 ;
C -1 ; WX 600 ; N ft ; B 14 -13 586 603 ;
C -1 ; WX 600 ; N Homme ; B 5 -3 595 581 ;
C -1 ; WX 600 ; N Femme ; B 63 -160 538 602 ;
C -1 ; WX 600 ; N LeftRightArrow ; B 4 24 596 402 ;
C -1 ; WX 600 ; N sfd ; B -47 -13 592 443 ;
C -1 ; WX 600 ; N nouveauGlyphe ; B 8 -13 647 443 ;
C -1 ; WX 900 ; N qu.duo ; B 4 -166 900 603 ;
C -1 ; WX 900 ; N Madame.duo ; B -1 -13 903 591 ;
C -1 ; WX 900 ; N Monsieur.duo ; B -1 -13 752 590 ;
C -1 ; WX 600 ; N vtf ; B 5 -13 611 603 ;
C -1 ; WX 600 ; N ialternate ; B 97 0 516 574 ;
C -1 ; WX 300 ; N ialternate.duo ; B 34 0 266 574 ;
EndCharMetrics
EndFontMetrics
